Brian’s IS415 Experience - Take-home Exercise 1: Geospatial Analytics for Social Good: Application of Spatial and Spatio-temporal Point Patterns Analysis to discover the geographical distribution of A
…
set.seed(4242)
lisa_2017 <- wm_q_2017 %>% 
  mutate(local_moran = local_moran(
    no_cases, nb, wt, nsim = 99),
         .before = 1) %>%
  unnest(local_moran)
lisa_2017

Simple feature collection with 77 features and 21 fields
Geometry type: MULTIPOLYGON
Dimension:     XY
Bounding box:  xmin: 97.34336 ymin: 5.613038 xmax: 105.637 ymax: 20.46507
Geodetic CRS:  WGS 84
# A tibble: 77 × 22
       ii        eii var_ii    z_ii          p_ii p_ii_sim p_folded_sim skewness
    <dbl>      <dbl>  <dbl>   <dbl>         <dbl>    <dbl>        <dbl>    <dbl>
 1 -0.556 -0.726     3.18    0.0955 0.924             0.84         0.42     1.15
 2  0.335  0.00121   0.110   1.01   0.314             0.06         0.03    -2.24
 3 -0.652  0.0429    0.0203 -4.87   0.00000109        0.04         0.02    -2.46
 4 -0.492 -0.0000714 0.0516 -2.17   0.0303            0.12         0.06    -2.22
 5  0.171  0.00626   0.0340  0.892  0.372             0.3          0.15    -1.52
 6  0.122 -0.00370   0.0132  1.09   0.276             0.06         0.03    -2.73
 7 -0.929  0.00822   0.0243 -6.00   0.00000000192     0.02         0.01    -3.07
 8  0.142 -0.00256   0.0784  0.516  0.606             0.58         0.29    -1.47
 9  0.329  0.00292   0.0827  1.13   0.256             0.04         0.02    -1.99
10  0.264  0.0694    0.0565  0.818  0.413             0.42         0.21    -2.03
# ℹ 67 more rows
# ℹ 14 more variables: kurtosis <dbl>, mean <fct>, median <fct>, pysal <fct>,
#   nb <nb>, wt <list>, fiscal_year <int>, types_of_drug_offenses <chr>,
#   no_cases <int>, province_en <chr>, Shape_Leng <dbl>, Shape_Area <dbl>,
#   date <date>, geometry <MULTIPOLYGON [°]>
…
set.seed(4242)
lisa_2018 <- wm_q_2018 %>% 
  mutate(local_moran = local_moran(
    no_cases, nb, wt, nsim = 99),
         .before = 1) %>%
  unnest(local_moran)
lisa_2018

Simple feature collection with 77 features and 21 fields
Geometry type: MULTIPOLYGON
Dimension:     XY
Bounding box:  xmin: 97.34336 ymin: 5.613038 xmax: 105.637 ymax: 20.46507
Geodetic CRS:  WGS 84
# A tibble: 77 × 22
         ii       eii    var_ii   z_ii       p_ii p_ii_sim p_folded_sim skewness
      <dbl>     <dbl>     <dbl>  <dbl>      <dbl>    <dbl>        <dbl>    <dbl>
 1  0.192   -0.708    3.37       0.490    6.24e-1     0.62         0.31     1.16
 2  0.358    0.00374  0.130      0.984    3.25e-1     0.16         0.08    -1.86
 3 -0.188    0.0101   0.00188   -4.57     4.85e-6     0.04         0.02    -2.20
 4 -0.0355   0.000684 0.000313  -2.04     4.11e-2     0.14         0.07    -2.21
 5  0.0580   0.00852  0.0157     0.395    6.93e-1     0.84         0.42    -1.30
 6  0.00332 -0.000511 0.0000984  0.387    6.99e-1     0.76         0.38    -2.42
 7  1.74    -0.00597  0.122      5.00     5.82e-7     0.04         0.02     2.73
 8 -0.0724  -0.0104   0.0568    -0.260    7.95e-1     0.64         0.32    -1.59
 9  0.280    0.0107   0.0816     0.943    3.46e-1     0.22         0.11    -1.72
10  0.178    0.0436   0.0545     0.573    5.66e-1     0.66         0.33    -1.63
# ℹ 67 more rows
# ℹ 14 more variables: kurtosis <dbl>, mean <fct>, median <fct>, pysal <fct>,
#   nb <nb>, wt <list>, fiscal_year <int>, types_of_drug_offenses <chr>,
#   no_cases <int>, province_en <chr>, Shape_Leng <dbl>, Shape_Area <dbl>,
#   date <date>, geometry <MULTIPOLYGON [°]>
…
set.seed(4242)
lisa_2019 <- wm_q_2019 %>% 
  mutate(local_moran = local_moran(
    no_cases, nb, wt, nsim = 99),
         .before = 1) %>%
  unnest(local_moran)
lisa_2019

Simple feature collection with 77 features and 21 fields
Geometry type: MULTIPOLYGON
Dimension:     XY
Bounding box:  xmin: 97.34336 ymin: 5.613038 xmax: 105.637 ymax: 20.46507
Geodetic CRS:  WGS 84
# A tibble: 77 × 22
          ii       eii    var_ii    z_ii     p_ii p_ii_sim p_folded_sim skewness
       <dbl>     <dbl>     <dbl>   <dbl>    <dbl>    <dbl>        <dbl>    <dbl>
 1  0.341    -0.478    3.34       0.448  0.654        0.6          0.3     1.09 
 2  0.306    -0.000190 0.0941     0.997  0.319        0.18         0.09   -1.30 
 3 -0.371     0.0183   0.0126    -3.47   0.000528     0.06         0.03   -1.64 
 4  0.216    -0.0101   0.0188     1.65   0.0991       0.18         0.09    1.64 
 5 -0.0149   -0.00255  0.000641  -0.488  0.625        0.76         0.38    0.733
 6 -0.000229 -0.000528 0.0000344  0.0510 0.959        0.9          0.45   -1.78 
 7  2.73      0.00364  0.517      3.79   0.000154     0.04         0.02    1.67 
 8 -0.270    -0.0190   0.0714    -0.938  0.348        0.3          0.15   -1.21 
 9  0.318     0.0122   0.0941     0.998  0.318        0.2          0.1    -1.15 
10  0.166     0.0420   0.107      0.379  0.704        0.94         0.47   -1.13 
# ℹ 67 more rows
# ℹ 14 more variables: kurtosis <dbl>, mean <fct>, median <fct>, pysal <fct>,
#   nb <nb>, wt <list>, fiscal_year <int>, types_of_drug_offenses <chr>,
#   no_cases <int>, province_en <chr>, Shape_Leng <dbl>, Shape_Area <dbl>,
#   date <date>, geometry <MULTIPOLYGON [°]>
…
set.seed(4242)
lisa_2020 <- wm_q_2020 %>% 
  mutate(local_moran = local_moran(
    no_cases, nb, wt, nsim = 99),
         .before = 1) %>%
  unnest(local_moran)
lisa_2020

Simple feature collection with 77 features and 21 fields
Geometry type: MULTIPOLYGON
Dimension:     XY
Bounding box:  xmin: 97.34336 ymin: 5.613038 xmax: 105.637 ymax: 20.46507
Geodetic CRS:  WGS 84
# A tibble: 77 × 22
        ii       eii   var_ii    z_ii  p_ii p_ii_sim p_folded_sim skewness
     <dbl>     <dbl>    <dbl>   <dbl> <dbl>    <dbl>        <dbl>    <dbl>
 1 -0.0216 -0.0130   0.0485   -0.0392 0.969     0.82         0.41   -0.977
 2 -0.0896 -0.0233   0.0160   -0.524  0.600     0.76         0.38    0.955
 3 -0.0366 -0.000725 0.00435  -0.543  0.587     0.84         0.42    0.587
 4  0.0565 -0.0138   0.0512    0.310  0.756     0.9          0.45   -0.699
 5  0.0349 -0.0253   0.0500    0.269  0.788     0.92         0.46   -0.821
 6  0.0160  0.000767 0.000482  0.692  0.489     0.6          0.3    -0.828
 7 -0.121   0.0814   0.240    -0.413  0.680     0.54         0.27   -1.55 
 8  0.0184 -0.000515 0.00185   0.441  0.659     0.86         0.43   -1.19 
 9  1.52    0.0979   1.16      1.32   0.188     0.26         0.13    1.48 
10  0.325  -0.106    1.30      0.377  0.706     0.62         0.31    0.841
# ℹ 67 more rows
# ℹ 14 more variables: kurtosis <dbl>, mean <fct>, median <fct>, pysal <fct>,
#   nb <nb>, wt <list>, fiscal_year <int>, types_of_drug_offenses <chr>,
#   no_cases <int>, province_en <chr>, Shape_Leng <dbl>, Shape_Area <dbl>,
#   date <date>, geometry <MULTIPOLYGON [°]>
…
set.seed(4242)
lisa_2021 <- wm_q_2021 %>% 
  mutate(local_moran = local_moran(
    no_cases, nb, wt, nsim = 99),
         .before = 1) %>%
  unnest(local_moran)
lisa_2021

Simple feature collection with 77 features and 21 fields
Geometry type: MULTIPOLYGON
Dimension:     XY
Bounding box:  xmin: 97.34336 ymin: 5.613038 xmax: 105.637 ymax: 20.46507
Geodetic CRS:  WGS 84
# A tibble: 77 × 22
        ii      eii  var_ii   z_ii   p_ii p_ii_sim p_folded_sim skewness
     <dbl>    <dbl>   <dbl>  <dbl>  <dbl>    <dbl>        <dbl>    <dbl>
 1  0.792   0.0225  0.159    1.93  0.0535     0.02         0.01   -0.447
 2  0.0221 -0.00327 0.00190  0.581 0.561      0.6          0.3     0.601
 3 -0.150   0.0186  0.0389  -0.858 0.391      0.38         0.19   -0.813
 4  0.294   0.0143  0.0412   1.38  0.169      0.06         0.03   -0.960
 5  0.118   0.0250  0.0245   0.594 0.553      0.6          0.3    -0.651
 6 -0.321  -0.0164  0.0243  -1.96  0.0501     0.14         0.07   -0.681
 7  0.0681 -0.0366  0.131    0.289 0.773      0.82         0.41   -0.675
 8  0.718   0.0329  0.191    1.57  0.117      0.06         0.03   -0.554
 9  0.635  -0.0222  0.276    1.25  0.211      0.18         0.09   -0.582
10 -0.125  -0.00554 0.0230  -0.790 0.429      0.36         0.18   -0.886
# ℹ 67 more rows
# ℹ 14 more variables: kurtosis <dbl>, mean <fct>, median <fct>, pysal <fct>,
#   nb <nb>, wt <list>, fiscal_year <int>, types_of_drug_offenses <chr>,
#   no_cases <int>, province_en <chr>, Shape_Leng <dbl>, Shape_Area <dbl>,
#   date <date>, geometry <MULTIPOLYGON [°]>
…
lisa_2022 <- wm_q_2022 %>% 
  mutate(local_moran = local_moran(
    no_cases, nb, wt, nsim = 99),
         .before = 1) %>%
  unnest(local_moran)
lisa_2022

Simple feature collection with 77 features and 21 fields
Geometry type: MULTIPOLYGON
Dimension:     XY
Bounding box:  xmin: 97.34336 ymin: 5.613038 xmax: 105.637 ymax: 20.46507
Geodetic CRS:  WGS 84
# A tibble: 77 × 22
         ii      eii  var_ii    z_ii    p_ii p_ii_sim p_folded_sim skewness
      <dbl>    <dbl>   <dbl>   <dbl>   <dbl>    <dbl>        <dbl>    <dbl>
 1 -0.495    0.0371  0.364   -0.882  0.378       0.36         0.18   -0.139
 2 -0.285    0.0270  0.169   -0.758  0.449       0.46         0.23    0.419
 3  0.0512   0.00125 0.00556  0.670  0.503       0.56         0.28   -0.435
 4  2.11    -0.00674 0.596    2.75   0.00605     0.02         0.01    0.336
 5  0.860    0.0412  0.142    2.17   0.0300      0.02         0.01   -0.661
 6  1.43    -0.0541  0.462    2.18   0.0293      0.04         0.02    0.222
 7 -0.00992 -0.0333  0.0286   0.138  0.890       0.88         0.44   -0.144
 8 -0.00621 -0.00279 0.00210 -0.0747 0.940       0.96         0.48   -0.367
 9  0.0762   0.0177  0.402    0.0922 0.927       0.98         0.49    0.327
10  0.672    0.0326  0.207    1.41   0.159       0.16         0.08   -0.388
# ℹ 67 more rows
# ℹ 14 more variables: kurtosis <dbl>, mean <fct>, median <fct>, pysal <fct>,
#   nb <nb>, wt <list>, fiscal_year <int>, types_of_drug_offenses <chr>,
#   no_cases <int>, province_en <chr>, Shape_Leng <dbl>, Shape_Area <dbl>,
#   date <date>, geometry <MULTIPOLYGON [°]>
…
